Change Component Designator: Old Designator=CAB? New Designator=CAB1
Change Component Designator: Old Designator=CAB? New Designator=CAB2
Change Component Designator: Old Designator=CAB? New Designator=CAB3
Change Component Designator: Old Designator=J? New Designator=J1
Change Component Designator: Old Designator=J? New Designator=J2
Change Component Designator: Old Designator=J? New Designator=J3
Change Component Designator: Old Designator=J? New Designator=J4
Change Component Designator: Old Designator=J? New Designator=J5
Change Component Designator: Old Designator=J? New Designator=J6
